digraph G {
node_0x816e890 [label="x"]
node_0x816e8d0 [label="a"]
node_0x816e910 [label="b"]
node_0x816e928 [label="&&"]
node_0x816e928 -> node_0x816e8d0
node_0x816e928 -> node_0x816e910
node_0x816e940 [label="="]
node_0x816e940 -> node_0x816e890
node_0x816e940 -> node_0x816e928
node_0x816e958 [label="f"]
node_0x816e958 -> node_0x816e940
node_0x816e988 [label="programa"]
node_0x816e988 -> node_0x816e958
root -> node_0x816e988
}
